…
It looks like we've missed some patterns. There's also something intersting going on in Africa: we see some very large residuals which suggests our model isn't fitting so well there. We'll explore that more in the next section, attacking it from a slightly different angle.

### 25.2.4 Model quality
Instead of looking at the residuals from the model, we could look at some general measurements of model quality. You learned how to compute some specific measures in the previous chapter. Here we’ll show a different approach using the broom package. The broom package provides a general set of functions to turn models into tidy data. Here we’ll use `broom::glance()` to extract some model quality metrics. If we apply it to a model, we get a data frame with a single row:

```{r}
broom::glance(nz_mod)
```

We can use `mutate()` and `unnest()` to create a data frame with a row for each country:
```{r}
by_country %>% 
  mutate(glance=map(model,broom::glance)) %>% 
  unnest(glance)
#> # A tibble: 142 x 16
#>   country  continent data     model resids   r.squared adj.r.squared sigma
#>   <fct>    <fct>     <list>   <lis> <list>       <dbl>         <dbl> <dbl>
#> 1 Afghani… Asia      <tibble… <S3:… <tibble…     0.948         0.942 1.22 
#> 2 Albania  Europe    <tibble… <S3:… <tibble…     0.911         0.902 1.98 
#> 3 Algeria  Africa    <tibble… <S3:… <tibble…     0.985         0.984 1.32 
#> 4 Angola   Africa    <tibble… <S3:… <tibble…     0.888         0.877 1.41 
#> 5 Argenti… Americas  <tibble… <S3:… <tibble…     0.996         0.995 0.292
#> 6 Austral… Oceania   <tibble… <S3:… <tibble…     0.980         0.978 0.621
#> # ... with 136 more rows, and 8 more variables: statistic <dbl>,
#> #   p.value <dbl>, df <int>, logLik <dbl>, AIC <dbl>, BIC <dbl>,
#> #   deviance <dbl>, df.residual <int>
```
…
